%YAML 1.1
%TAG !u! tag:unity3d.com,2011:
--- !u!74 &7400000
AnimationClip:
  m_ObjectHideFlags: 0
  m_CorrespondingSourceObject: {fileID: 0}
  m_PrefabInstance: {fileID: 0}
  m_PrefabAsset: {fileID: 0}
  m_Name: AttackKatana_5
  serializedVersion: 6
  m_Legacy: 0
  m_Compressed: 0
  m_UseHighQualityCurve: 1
  m_RotationCurves: []
  m_CompressedRotationCurves: []
  m_EulerCurves: []
  m_PositionCurves: []
  m_ScaleCurves: []
  m_FloatCurves: []
  m_PPtrCurves:
  - curve:
    - time: 0
      value: {fileID: 21300000, guid: c09bc0d2af204634badcc5a59bf77d17, type: 3}
    - time: 0.033333335
      value: {fileID: 21300000, guid: e80c82d652a51e943b57f395e470be8c, type: 3}
    - time: 0.083333336
      value: {fileID: 21300000, guid: 54f15af8439545e419c5ade077678dad, type: 3}
    - time: 0.15
      value: {fileID: 21300000, guid: 447f25e22b3255e48a278fcec41e3306, type: 3}
    - time: 0.18333334
      value: {fileID: 21300000, guid: 17007acfa5b39e249b34ca22b8badcae, type: 3}
    - time: 0.23333333
      value: {fileID: 21300000, guid: bfcd25206531b4e499624d2cf8d02188, type: 3}
    - time: 0.26666668
      value: {fileID: 21300000, guid: 6f9dc61e4e2dd2d4c9afe58951e10b37, type: 3}
    - time: 0.33333334
      value: {fileID: 21300000, guid: ced411c1d36b6f34385f78209176c370, type: 3}
    - time: 0.38333333
      value: {fileID: 21300000, guid: b2f8eaf4c12109f41823ce8c80b16614, type: 3}
    - time: 0.41666666
      value: {fileID: 21300000, guid: d42009d8d40720a45ae1cf0b85fc3db2, type: 3}
    attribute: m_Sprite
    path: 
    classID: 212
    script: {fileID: 0}
  m_SampleRate: 60
  m_WrapMode: 0
  m_Bounds:
    m_Center: {x: 0, y: 0, z: 0}
    m_Extent: {x: 0, y: 0, z: 0}
  m_ClipBindingConstant:
    genericBindings:
    - serializedVersion: 2
      path: 0
      attribute: 0
      script: {fileID: 0}
      typeID: 212
      customType: 23
      isPPtrCurve: 1
    pptrCurveMapping:
    - {fileID: 21300000, guid: c09bc0d2af204634badcc5a59bf77d17, type: 3}
    - {fileID: 21300000, guid: e80c82d652a51e943b57f395e470be8c, type: 3}
    - {fileID: 21300000, guid: 54f15af8439545e419c5ade077678dad, type: 3}
    - {fileID: 21300000, guid: 447f25e22b3255e48a278fcec41e3306, type: 3}
    - {fileID: 21300000, guid: 17007acfa5b39e249b34ca22b8badcae, type: 3}
    - {fileID: 21300000, guid: bfcd25206531b4e499624d2cf8d02188, type: 3}
    - {fileID: 21300000, guid: 6f9dc61e4e2dd2d4c9afe58951e10b37, type: 3}
    - {fileID: 21300000, guid: ced411c1d36b6f34385f78209176c370, type: 3}
    - {fileID: 21300000, guid: b2f8eaf4c12109f41823ce8c80b16614, type: 3}
    - {fileID: 21300000, guid: d42009d8d40720a45ae1cf0b85fc3db2, type: 3}
  m_AnimationClipSettings:
    serializedVersion: 2
    m_AdditiveReferencePoseClip: {fileID: 0}
    m_AdditiveReferencePoseTime: 0
    m_StartTime: 0
    m_StopTime: 0.43333334
    m_OrientationOffsetY: 0
    m_Level: 0
    m_CycleOffset: 0
    m_HasAdditiveReferencePose: 0
    m_LoopTime: 1
    m_LoopBlend: 0
    m_LoopBlendOrientation: 0
    m_LoopBlendPositionY: 0
    m_LoopBlendPositionXZ: 0
    m_KeepOriginalOrientation: 0
    m_KeepOriginalPositionY: 1
    m_KeepOriginalPositionXZ: 0
    m_HeightFromFeet: 0
    m_Mirror: 0
  m_EditorCurves: []
  m_EulerEditorCurves: []
  m_HasGenericRootTransform: 0
  m_HasMotionFloatCurves: 0
  m_Events: []
