%YAML 1.1
%TAG !u! tag:unity3d.com,2011:
--- !u!74 &7400000
AnimationClip:
  m_ObjectHideFlags: 0
  m_CorrespondingSourceObject: {fileID: 0}
  m_PrefabInstance: {fileID: 0}
  m_PrefabAsset: {fileID: 0}
  m_Name: DeathDagger
  serializedVersion: 6
  m_Legacy: 0
  m_Compressed: 0
  m_UseHighQualityCurve: 1
  m_RotationCurves: []
  m_CompressedRotationCurves: []
  m_EulerCurves: []
  m_PositionCurves: []
  m_ScaleCurves: []
  m_FloatCurves: []
  m_PPtrCurves:
  - curve:
    - time: 0
      value: {fileID: 21300000, guid: 297f7c089f100d34ca2d9934fba228ba, type: 3}
    - time: 0.033333335
      value: {fileID: 21300000, guid: 0670600db152c3547a61c3c2a724ff68, type: 3}
    - time: 0.083333336
      value: {fileID: 21300000, guid: faa543eec7a79c24cb95321a5b883862, type: 3}
    - time: 0.11666667
      value: {fileID: 21300000, guid: c4ff9a07094294d4e802d29ca074545e, type: 3}
    - time: 0.15
      value: {fileID: 21300000, guid: e109583b0b14da7449afe5b314f36705, type: 3}
    - time: 0.2
      value: {fileID: 21300000, guid: 445dff5f54ad6964d9a27967fb60b582, type: 3}
    - time: 0.23333333
      value: {fileID: 21300000, guid: bcfc90e1efc20934795ec9f7e1ea95df, type: 3}
    - time: 0.26666668
      value: {fileID: 21300000, guid: 83f3c1d0ffb5794468b15f952992a3e5, type: 3}
    - time: 0.31666666
      value: {fileID: 21300000, guid: 5fd3bfec25dc33749b6228fb8623810e, type: 3}
    - time: 0.35
      value: {fileID: 21300000, guid: 8c56ff272e0c0a842b25c6c9dfdf15be, type: 3}
    - time: 0.4
      value: {fileID: 21300000, guid: 7926873961c8e8043a8ac9059c9d668a, type: 3}
    - time: 0.43333334
      value: {fileID: 21300000, guid: 94b8d4c4d6ae61b49ae71894ba6dc390, type: 3}
    - time: 0.46666667
      value: {fileID: 21300000, guid: cdb8b1c9ae9ab4e4c8263282446b6787, type: 3}
    - time: 0.51666665
      value: {fileID: 21300000, guid: 3f1c7fb471976a44e8e4646869dbd55d, type: 3}
    - time: 0.55
      value: {fileID: 21300000, guid: 86fb04ba720de644192b1a677c5c0a4f, type: 3}
    - time: 0.5833333
      value: {fileID: 21300000, guid: 88d11fbe064f6cb41b0db6ddd57fdfe9, type: 3}
    - time: 0.6333333
      value: {fileID: 21300000, guid: b9a70ab6d28743a4e9fa67cdd3fbb1f6, type: 3}
    - time: 0.6666667
      value: {fileID: 21300000, guid: 530d06e258a0a8949864cbdc22af7640, type: 3}
    attribute: m_Sprite
    path: 
    classID: 212
    script: {fileID: 0}
  m_SampleRate: 60
  m_WrapMode: 0
  m_Bounds:
    m_Center: {x: 0, y: 0, z: 0}
    m_Extent: {x: 0, y: 0, z: 0}
  m_ClipBindingConstant:
    genericBindings:
    - serializedVersion: 2
      path: 0
      attribute: 0
      script: {fileID: 0}
      typeID: 212
      customType: 23
      isPPtrCurve: 1
    pptrCurveMapping:
    - {fileID: 21300000, guid: 297f7c089f100d34ca2d9934fba228ba, type: 3}
    - {fileID: 21300000, guid: 0670600db152c3547a61c3c2a724ff68, type: 3}
    - {fileID: 21300000, guid: faa543eec7a79c24cb95321a5b883862, type: 3}
    - {fileID: 21300000, guid: c4ff9a07094294d4e802d29ca074545e, type: 3}
    - {fileID: 21300000, guid: e109583b0b14da7449afe5b314f36705, type: 3}
    - {fileID: 21300000, guid: 445dff5f54ad6964d9a27967fb60b582, type: 3}
    - {fileID: 21300000, guid: bcfc90e1efc20934795ec9f7e1ea95df, type: 3}
    - {fileID: 21300000, guid: 83f3c1d0ffb5794468b15f952992a3e5, type: 3}
    - {fileID: 21300000, guid: 5fd3bfec25dc33749b6228fb8623810e, type: 3}
    - {fileID: 21300000, guid: 8c56ff272e0c0a842b25c6c9dfdf15be, type: 3}
    - {fileID: 21300000, guid: 7926873961c8e8043a8ac9059c9d668a, type: 3}
    - {fileID: 21300000, guid: 94b8d4c4d6ae61b49ae71894ba6dc390, type: 3}
    - {fileID: 21300000, guid: cdb8b1c9ae9ab4e4c8263282446b6787, type: 3}
    - {fileID: 21300000, guid: 3f1c7fb471976a44e8e4646869dbd55d, type: 3}
    - {fileID: 21300000, guid: 86fb04ba720de644192b1a677c5c0a4f, type: 3}
    - {fileID: 21300000, guid: 88d11fbe064f6cb41b0db6ddd57fdfe9, type: 3}
    - {fileID: 21300000, guid: b9a70ab6d28743a4e9fa67cdd3fbb1f6, type: 3}
    - {fileID: 21300000, guid: 530d06e258a0a8949864cbdc22af7640, type: 3}
  m_AnimationClipSettings:
    serializedVersion: 2
    m_AdditiveReferencePoseClip: {fileID: 0}
    m_AdditiveReferencePoseTime: 0
    m_StartTime: 0
    m_StopTime: 0.68333334
    m_OrientationOffsetY: 0
    m_Level: 0
    m_CycleOffset: 0
    m_HasAdditiveReferencePose: 0
    m_LoopTime: 1
    m_LoopBlend: 0
    m_LoopBlendOrientation: 0
    m_LoopBlendPositionY: 0
    m_LoopBlendPositionXZ: 0
    m_KeepOriginalOrientation: 0
    m_KeepOriginalPositionY: 1
    m_KeepOriginalPositionXZ: 0
    m_HeightFromFeet: 0
    m_Mirror: 0
  m_EditorCurves: []
  m_EulerEditorCurves: []
  m_HasGenericRootTransform: 0
  m_HasMotionFloatCurves: 0
  m_Events: []
