%YAML 1.1
%TAG !u! tag:unity3d.com,2011:
--- !u!74 &7400000
AnimationClip:
  m_ObjectHideFlags: 0
  m_CorrespondingSourceObject: {fileID: 0}
  m_PrefabInstance: {fileID: 0}
  m_PrefabAsset: {fileID: 0}
  m_Name: TakingDamageKatana_3
  serializedVersion: 6
  m_Legacy: 0
  m_Compressed: 0
  m_UseHighQualityCurve: 1
  m_RotationCurves: []
  m_CompressedRotationCurves: []
  m_EulerCurves: []
  m_PositionCurves: []
  m_ScaleCurves: []
  m_FloatCurves: []
  m_PPtrCurves:
  - curve:
    - time: 0
      value: {fileID: 21300000, guid: 59035534586bd8e4c8550cd9dffc41d7, type: 3}
    - time: 0.033333335
      value: {fileID: 21300000, guid: a36b376c095e9484e99447de7292db31, type: 3}
    - time: 0.083333336
      value: {fileID: 21300000, guid: ebff82541465ed547bf5b9310da1fdb3, type: 3}
    - time: 0.13333334
      value: {fileID: 21300000, guid: 88a2584b3defe724485289aa40bdd581, type: 3}
    - time: 0.16666667
      value: {fileID: 21300000, guid: 42cb9437760ae1a4c83b929c06fcd272, type: 3}
    - time: 0.21666667
      value: {fileID: 21300000, guid: 84993db9cebcb004eb086ae691b7b475, type: 3}
    - time: 0.25
      value: {fileID: 21300000, guid: 8559b40e166927b498558e466d05b61b, type: 3}
    - time: 0.3
      value: {fileID: 21300000, guid: 0eee6bd197c91cc4ebd6e8dcbe83cf3f, type: 3}
    - time: 0.33333334
      value: {fileID: 21300000, guid: 73c93f037d773c74498ee6d5eb247335, type: 3}
    - time: 0.36666667
      value: {fileID: 21300000, guid: 24ae5e8bb755b674cad3817d84e1c442, type: 3}
    - time: 0.41666666
      value: {fileID: 21300000, guid: 6b1f3addfd7004e42b753dc96719204e, type: 3}
    attribute: m_Sprite
    path: 
    classID: 212
    script: {fileID: 0}
  m_SampleRate: 60
  m_WrapMode: 0
  m_Bounds:
    m_Center: {x: 0, y: 0, z: 0}
    m_Extent: {x: 0, y: 0, z: 0}
  m_ClipBindingConstant:
    genericBindings:
    - serializedVersion: 2
      path: 0
      attribute: 0
      script: {fileID: 0}
      typeID: 212
      customType: 23
      isPPtrCurve: 1
    pptrCurveMapping:
    - {fileID: 21300000, guid: 59035534586bd8e4c8550cd9dffc41d7, type: 3}
    - {fileID: 21300000, guid: a36b376c095e9484e99447de7292db31, type: 3}
    - {fileID: 21300000, guid: ebff82541465ed547bf5b9310da1fdb3, type: 3}
    - {fileID: 21300000, guid: 88a2584b3defe724485289aa40bdd581, type: 3}
    - {fileID: 21300000, guid: 42cb9437760ae1a4c83b929c06fcd272, type: 3}
    - {fileID: 21300000, guid: 84993db9cebcb004eb086ae691b7b475, type: 3}
    - {fileID: 21300000, guid: 8559b40e166927b498558e466d05b61b, type: 3}
    - {fileID: 21300000, guid: 0eee6bd197c91cc4ebd6e8dcbe83cf3f, type: 3}
    - {fileID: 21300000, guid: 73c93f037d773c74498ee6d5eb247335, type: 3}
    - {fileID: 21300000, guid: 24ae5e8bb755b674cad3817d84e1c442, type: 3}
    - {fileID: 21300000, guid: 6b1f3addfd7004e42b753dc96719204e, type: 3}
  m_AnimationClipSettings:
    serializedVersion: 2
    m_AdditiveReferencePoseClip: {fileID: 0}
    m_AdditiveReferencePoseTime: 0
    m_StartTime: 0
    m_StopTime: 0.43333334
    m_OrientationOffsetY: 0
    m_Level: 0
    m_CycleOffset: 0
    m_HasAdditiveReferencePose: 0
    m_LoopTime: 0
    m_LoopBlend: 0
    m_LoopBlendOrientation: 0
    m_LoopBlendPositionY: 0
    m_LoopBlendPositionXZ: 0
    m_KeepOriginalOrientation: 0
    m_KeepOriginalPositionY: 1
    m_KeepOriginalPositionXZ: 0
    m_HeightFromFeet: 0
    m_Mirror: 0
  m_EditorCurves: []
  m_EulerEditorCurves: []
  m_HasGenericRootTransform: 0
  m_HasMotionFloatCurves: 0
  m_Events: []
