%YAML 1.1
%TAG !u! tag:unity3d.com,2011:
--- !u!74 &7400000
AnimationClip:
  m_ObjectHideFlags: 0
  m_CorrespondingSourceObject: {fileID: 0}
  m_PrefabInstance: {fileID: 0}
  m_PrefabAsset: {fileID: 0}
  m_Name: AttackDagger_1
  serializedVersion: 6
  m_Legacy: 0
  m_Compressed: 0
  m_UseHighQualityCurve: 1
  m_RotationCurves: []
  m_CompressedRotationCurves: []
  m_EulerCurves: []
  m_PositionCurves: []
  m_ScaleCurves: []
  m_FloatCurves: []
  m_PPtrCurves:
  - curve:
    - time: 0
      value: {fileID: 21300000, guid: 0c6a3ed1e1fe63b4a8867ff134027da9, type: 3}
    - time: 0.033333335
      value: {fileID: 21300000, guid: 65a4bf91709965245bba161c905fa0dc, type: 3}
    - time: 0.06666667
      value: {fileID: 21300000, guid: 9c48d2a0a074b3d429aa6b849cb990a7, type: 3}
    - time: 0.1
      value: {fileID: 21300000, guid: fff6339e15dca1b44bc89a64dece7c77, type: 3}
    - time: 0.13333334
      value: {fileID: 21300000, guid: 0b2610f57f449a04dbef8e1e0ce8e45d, type: 3}
    - time: 0.2
      value: {fileID: 21300000, guid: c54cecd3d423c014c94217ad25869bda, type: 3}
    - time: 0.23333333
      value: {fileID: 21300000, guid: c73c6e9501cd8b14080cd23718c5a527, type: 3}
    - time: 0.26666668
      value: {fileID: 21300000, guid: 6dffab5355c99004ea20b6dfd9681e98, type: 3}
    - time: 0.3
      value: {fileID: 21300000, guid: 11070ad6ce257e7449ca1f3e433ca6ae, type: 3}
    attribute: m_Sprite
    path: 
    classID: 212
    script: {fileID: 0}
  m_SampleRate: 60
  m_WrapMode: 0
  m_Bounds:
    m_Center: {x: 0, y: 0, z: 0}
    m_Extent: {x: 0, y: 0, z: 0}
  m_ClipBindingConstant:
    genericBindings:
    - serializedVersion: 2
      path: 0
      attribute: 0
      script: {fileID: 0}
      typeID: 212
      customType: 23
      isPPtrCurve: 1
    pptrCurveMapping:
    - {fileID: 21300000, guid: 0c6a3ed1e1fe63b4a8867ff134027da9, type: 3}
    - {fileID: 21300000, guid: 65a4bf91709965245bba161c905fa0dc, type: 3}
    - {fileID: 21300000, guid: 9c48d2a0a074b3d429aa6b849cb990a7, type: 3}
    - {fileID: 21300000, guid: fff6339e15dca1b44bc89a64dece7c77, type: 3}
    - {fileID: 21300000, guid: 0b2610f57f449a04dbef8e1e0ce8e45d, type: 3}
    - {fileID: 21300000, guid: c54cecd3d423c014c94217ad25869bda, type: 3}
    - {fileID: 21300000, guid: c73c6e9501cd8b14080cd23718c5a527, type: 3}
    - {fileID: 21300000, guid: 6dffab5355c99004ea20b6dfd9681e98, type: 3}
    - {fileID: 21300000, guid: 11070ad6ce257e7449ca1f3e433ca6ae, type: 3}
  m_AnimationClipSettings:
    serializedVersion: 2
    m_AdditiveReferencePoseClip: {fileID: 0}
    m_AdditiveReferencePoseTime: 0
    m_StartTime: 0
    m_StopTime: 0.3166667
    m_OrientationOffsetY: 0
    m_Level: 0
    m_CycleOffset: 0
    m_HasAdditiveReferencePose: 0
    m_LoopTime: 0
    m_LoopBlend: 0
    m_LoopBlendOrientation: 0
    m_LoopBlendPositionY: 0
    m_LoopBlendPositionXZ: 0
    m_KeepOriginalOrientation: 0
    m_KeepOriginalPositionY: 1
    m_KeepOriginalPositionXZ: 0
    m_HeightFromFeet: 0
    m_Mirror: 0
  m_EditorCurves: []
  m_EulerEditorCurves: []
  m_HasGenericRootTransform: 0
  m_HasMotionFloatCurves: 0
  m_Events: []
