%YAML 1.1
%TAG !u! tag:unity3d.com,2011:
--- !u!74 &7400000
AnimationClip:
  m_ObjectHideFlags: 0
  m_CorrespondingSourceObject: {fileID: 0}
  m_PrefabInstance: {fileID: 0}
  m_PrefabAsset: {fileID: 0}
  m_Name: AttackKatana_3
  serializedVersion: 6
  m_Legacy: 0
  m_Compressed: 0
  m_UseHighQualityCurve: 1
  m_RotationCurves: []
  m_CompressedRotationCurves: []
  m_EulerCurves: []
  m_PositionCurves: []
  m_ScaleCurves: []
  m_FloatCurves: []
  m_PPtrCurves:
  - curve:
    - time: 0
      value: {fileID: 21300000, guid: dd18299dcf210e74fa7749d7e009918f, type: 3}
    - time: 0.033333335
      value: {fileID: 21300000, guid: e7ff7db4fecd4dc49bbd19cc0f876daa, type: 3}
    - time: 0.083333336
      value: {fileID: 21300000, guid: 45d08ad127c882b41ae826db2380b159, type: 3}
    - time: 0.11666667
      value: {fileID: 21300000, guid: e11cd70d0aa34e94894db389dc1d1e86, type: 3}
    - time: 0.16666667
      value: {fileID: 21300000, guid: d05bc8de07bcb69429656d09057f9b08, type: 3}
    - time: 0.2
      value: {fileID: 21300000, guid: 9940a91b7f1b1cf45a63a169ef05d424, type: 3}
    - time: 0.25
      value: {fileID: 21300000, guid: d2cc447a6c78f0345b11725870712191, type: 3}
    - time: 0.28333333
      value: {fileID: 21300000, guid: 074ea2bfc9e6f644189950754be6fcee, type: 3}
    - time: 0.33333334
      value: {fileID: 21300000, guid: 577716fab25ebc841854267ba5330f61, type: 3}
    attribute: m_Sprite
    path: 
    classID: 212
    script: {fileID: 0}
  m_SampleRate: 60
  m_WrapMode: 0
  m_Bounds:
    m_Center: {x: 0, y: 0, z: 0}
    m_Extent: {x: 0, y: 0, z: 0}
  m_ClipBindingConstant:
    genericBindings:
    - serializedVersion: 2
      path: 0
      attribute: 0
      script: {fileID: 0}
      typeID: 212
      customType: 23
      isPPtrCurve: 1
    pptrCurveMapping:
    - {fileID: 21300000, guid: dd18299dcf210e74fa7749d7e009918f, type: 3}
    - {fileID: 21300000, guid: e7ff7db4fecd4dc49bbd19cc0f876daa, type: 3}
    - {fileID: 21300000, guid: 45d08ad127c882b41ae826db2380b159, type: 3}
    - {fileID: 21300000, guid: e11cd70d0aa34e94894db389dc1d1e86, type: 3}
    - {fileID: 21300000, guid: d05bc8de07bcb69429656d09057f9b08, type: 3}
    - {fileID: 21300000, guid: 9940a91b7f1b1cf45a63a169ef05d424, type: 3}
    - {fileID: 21300000, guid: d2cc447a6c78f0345b11725870712191, type: 3}
    - {fileID: 21300000, guid: 074ea2bfc9e6f644189950754be6fcee, type: 3}
    - {fileID: 21300000, guid: 577716fab25ebc841854267ba5330f61, type: 3}
  m_AnimationClipSettings:
    serializedVersion: 2
    m_AdditiveReferencePoseClip: {fileID: 0}
    m_AdditiveReferencePoseTime: 0
    m_StartTime: 0
    m_StopTime: 0.35000002
    m_OrientationOffsetY: 0
    m_Level: 0
    m_CycleOffset: 0
    m_HasAdditiveReferencePose: 0
    m_LoopTime: 1
    m_LoopBlend: 0
    m_LoopBlendOrientation: 0
    m_LoopBlendPositionY: 0
    m_LoopBlendPositionXZ: 0
    m_KeepOriginalOrientation: 0
    m_KeepOriginalPositionY: 1
    m_KeepOriginalPositionXZ: 0
    m_HeightFromFeet: 0
    m_Mirror: 0
  m_EditorCurves: []
  m_EulerEditorCurves: []
  m_HasGenericRootTransform: 0
  m_HasMotionFloatCurves: 0
  m_Events: []
